\relax 
\citation{Hal91}
\citation{NieOT-JACM-06}
\citation{GeBT-CADE-07,DBLP:conf/cade/MouraB07}
\citation{Ge:DeMoura:CompleteInstantiation:CAV:2009}
\citation{Korovin:Voronkov:IntegratingLIASuperposition:CSL:2007,Ruemmer:SequentCalculusLIA:LPAR:2008,Ganzinger:Korovin:ThInst:LPAR:2006,Baumgartner:Tinelli:MEET:CADE:2011}
\citation{Bachmair:Ganzinger:Waldmann:TheoremProvingHierarchical:AAECC:94,Althaus:EtAt:SuperpositionLA:FroCos:2009,Kruglov:Weidenbach:MACIS:2012,Baumgartner:Waldmann:HSPCompletenessWithoutCompactness:MACIS:2013,Baumgartner:Waldmann:HSPWeakAbstraction:CADE:2013}
\@writefile{toc}{\contentsline {title}{\bfseries  Finite Quantification in Hierarchic Theorem Proving}{1}}
\@writefile{toc}{\contentsline {author}{Peter Baumgartner\unskip {} \hskip 1em\relax Joshua Bax\unskip {} \hskip 1em\relax Uwe Waldmann\unskip {}}{1}}
\@writefile{toc}{\contentsline {section}{\numberline {1}Introduction}{1}}
\newlabel{sec:introduction}{{1}{1}}
\citation{Slaney:FINDER:TR:92,Zhang:SEM:IJCAI:95,McCune:MACE4:2003,Claessen:Soerensson:MACEimprove:ModelComputationWS:2003,Baumgartner:etal:MEFiniteModels:JAL:2009,ReyEtAl-CADE-13,ReyEtAl-CAV-13}
\citation{Bachmair:Ganzinger:Waldmann:TheoremProvingHierarchical:AAECC:94,Baumgartner:Waldmann:HSPWeakAbstraction:CADE:2013}
\citation{Baumgartner:Waldmann:HSPWeakAbstraction:CADE:2013}
\citation{Claessen:Soerensson:MACEimprove:ModelComputationWS:2003}
\citation{Baumgartner:etal:MEFiniteModels:JAL:2009}
\citation{Slaney:FINDER:TR:92,Zhang:SEM:IJCAI:95,McCune:MACE4:2003}
\citation{ReyEtAl-CADE-13,ReyEtAl-CAV-13}
\citation{ReyEtAl-CADE-13}
\citation{GeBT-CADE-07,DBLP:conf/cade/MouraB07}
\citation{Ge:DeMoura:CompleteInstantiation:CAV:2009}
\citation{Bachmair:Ganzinger:Waldmann:TheoremProvingHierarchical:AAECC:94}
\citation{Kruglov:Weidenbach:MACIS:2012}
\citation{Baumgartner:Waldmann:HSPWeakAbstraction:CADE:2013}
\citation{Baumgartner:Waldmann:HSPCompletenessWithoutCompactness:MACIS:2013}
\citation{Bachmair:Ganzinger:Waldmann:TheoremProvingHierarchical:AAECC:94,Baumgartner:Waldmann:HSPWeakAbstraction:CADE:2013}
\citation{Baumgartner:Waldmann:HSPWeakAbstraction:CADE:2013}
\citation{Bachmair:Ganzinger:RewriteBasedTP:JLC:94}
\@writefile{toc}{\contentsline {section}{\numberline {2}Hierarchic Theorem Proving}{5}}
\newlabel{sec:hierarchic-theorem-proving}{{2}{5}}
\citation{Kruglov:Weidenbach:MACIS:2012,Baumgartner:Waldmann:HSPWeakAbstraction:CADE:2013}
\@writefile{toc}{\contentsline {section}{\numberline {3}Finite Domain Transformation}{6}}
\newlabel{sec:fd}{{3}{6}}
\newlabel{def:finitely-quantified-clause}{{3.1}{7}}
\newlabel{ex:running}{{3.2}{7}}
\newlabel{def:fd-trafo}{{3.3}{7}}
\citation{Baumgartner:Waldmann:HSPWeakAbstraction:CADE:2013}
\newlabel{prop:fd-sufficient-completeness}{{3.5}{8}}
\newlabel{lemma:1}{{3.7}{9}}
\newlabel{lemma:2}{{3.8}{9}}
\newlabel{lemma:3}{{3.9}{10}}
\@writefile{toc}{\contentsline {section}{\numberline {4}Checking Satisfiability}{10}}
\newlabel{sec:checking-satisfiability}{{4}{10}}
\newlabel{lemma:find-correctness}{{4.1}{11}}
\citation{Baumgartner:Waldmann:HSPWeakAbstraction:CADE:2013}
\citation{DBLP:conf/tacas/MouraB08}
\newlabel{th:correctness-checkSAT}{{4.2}{12}}
\@writefile{toc}{\contentsline {section}{\numberline {5}Experimental Results}{12}}
\newlabel{sec:experimental-results}{{5}{12}}
\@writefile{lot}{\contentsline {table}{\numberline {1}{\ignorespaces Experimental results. Problem 4 is $\{\textsf  {{\relax \fontsize  {9}{11}\selectfont  \abovedisplayskip 8.5\p@ plus3\p@ minus4\p@ \abovedisplayshortskip \z@ plus2\p@ \belowdisplayshortskip 4\p@ plus2\p@ minus2\p@ \def \leftmargin \leftmargini \parsep 0\p@ plus1\p@ minus\p@ \topsep 8\p@ plus2\p@ minus4\p@ \itemsep 0\p@ {\leftmargin \leftmargini \parsep 0\p@ plus1\p@ minus\p@ \topsep 8\p@ plus2\p@ minus4\p@ \itemsep 0\p@ }\belowdisplayskip \abovedisplayskip f}}(x) \not  \approx x \vee x \notin \Delta ,\nobreakspace  {} \textsf  {{\relax \fontsize  {9}{11}\selectfont  \abovedisplayskip 8.5\p@ plus3\p@ minus4\p@ \abovedisplayshortskip \z@ plus2\p@ \belowdisplayshortskip 4\p@ plus2\p@ minus2\p@ \def \leftmargin \leftmargini \parsep 0\p@ plus1\p@ minus\p@ \topsep 8\p@ plus2\p@ minus4\p@ \itemsep 0\p@ {\leftmargin \leftmargini \parsep 0\p@ plus1\p@ minus\p@ \topsep 8\p@ plus2\p@ minus4\p@ \itemsep 0\p@ }\belowdisplayskip \abovedisplayskip f}}(5) \approx 8,\nobreakspace  {} \textsf  {{\relax \fontsize  {9}{11}\selectfont  \abovedisplayskip 8.5\p@ plus3\p@ minus4\p@ \abovedisplayshortskip \z@ plus2\p@ \belowdisplayshortskip 4\p@ plus2\p@ minus2\p@ \def \leftmargin \leftmargini \parsep 0\p@ plus1\p@ minus\p@ \topsep 8\p@ plus2\p@ minus4\p@ \itemsep 0\p@ {\leftmargin \leftmargini \parsep 0\p@ plus1\p@ minus\p@ \topsep 8\p@ plus2\p@ minus4\p@ \itemsep 0\p@ }\belowdisplayskip \abovedisplayskip f}}(8) \approx 5\}$}}{13}}
\newlabel{tab:results}{{1}{13}}
\citation{Baumgartner:Waldmann:HSPWeakAbstraction:CADE:2013}
\bibcite{Althaus:EtAt:SuperpositionLA:FroCos:2009}{1}
\@writefile{toc}{\contentsline {section}{\numberline {6}Conclusions}{14}}
\newlabel{sec:conclusions}{{6}{14}}
\@writefile{toc}{\contentsline {paragraph}{Richer input language:}{14}}
\@writefile{toc}{\contentsline {paragraph}{Alternative default interpretation:}{14}}
\@writefile{toc}{\contentsline {paragraph}{Bernays-Sch\"onfinkel fragment:}{14}}
\bibcite{Bachmair:Ganzinger:RewriteBasedTP:JLC:94}{2}
\bibcite{Bachmair:Ganzinger:Waldmann:TheoremProvingHierarchical:AAECC:94}{3}
\bibcite{Baumgartner:etal:MEFiniteModels:JAL:2009}{4}
\bibcite{Baumgartner:Tinelli:MEET:CADE:2011}{5}
\bibcite{Baumgartner:Waldmann:HSPCompletenessWithoutCompactness:MACIS:2013}{6}
\bibcite{Baumgartner:Waldmann:HSPWeakAbstraction:CADE:2013}{7}
\bibcite{Claessen:Soerensson:MACEimprove:ModelComputationWS:2003}{8}
\bibcite{Ganzinger:Korovin:ThInst:LPAR:2006}{9}
\bibcite{GeBT-CADE-07}{10}
\bibcite{Ge:DeMoura:CompleteInstantiation:CAV:2009}{11}
\bibcite{Hal91}{12}
\bibcite{Korovin:Voronkov:IntegratingLIASuperposition:CSL:2007}{13}
\bibcite{Kruglov:Weidenbach:MACIS:2012}{14}
\bibcite{McCune:MACE4:2003}{15}
\bibcite{DBLP:conf/cade/MouraB07}{16}
\bibcite{DBLP:conf/tacas/MouraB08}{17}
\bibcite{NieOT-JACM-06}{18}
\bibcite{ReyEtAl-CAV-13}{19}
\bibcite{ReyEtAl-CADE-13}{20}
\bibcite{Ruemmer:SequentCalculusLIA:LPAR:2008}{21}
\bibcite{Slaney:FINDER:TR:92}{22}
\bibcite{Zhang:SEM:IJCAI:95}{23}
